{
  "images" : [
    {
      "filename" : "restoran-sixty-siksti-na-presnenskoy-naberezhnoy_e2946_full-50419.jpg",
      "idiom" : "universal"
    }
  ],
  "info" : {
    "author" : "xcode",
    "version" : 1
  }
}
